<?xml version="1.0" encoding="utf-8"?>
<!-- Generator: Adobe Illustrator 19.2.1, SVG Export Plug-In . SVG Version: 6.00 Build 0)  -->
<svg version="1.1" id="Слой_1" xmlns="http://www.w3.org/2000/svg" xmlns:xlink="http://www.w3.org/1999/xlink" x="0px" y="0px"
	 viewBox="0 0 8.2 8.4" style="enable-background:new 0 0 8.2 8.4;" xml:space="preserve">
<style type="text/css">
	.st0{fill-rule:evenodd;clip-rule:evenodd;}
</style>
<path class="st0" d="M6.5,0l1.6,1.7L1.7,8.3L0.1,6.6L6.5,0z"/>
<path class="st0" d="M0,1.8L1.7,0l6.4,6.6L6.4,8.4L0,1.8z"/>
</svg>
