<svg width="21" height="21" xmlns="http://www.w3.org/2000/svg">

 <g>
  <title>Layer 1</title>
  <path transform="rotate(359.096 10.5004 10.5863) matrix(1 0 0 1 1.49012e-8 0.0858993)" fill="#000000" d="M10.5,0C4.7,0 0,4.7 0,10.5S4.7,21 10.5,21S21,16.3 21,10.5S16.3,0 10.5,0zM9,15.4L4,10.5L6,8.5L9,11.5L15,5.6L17,7.6L9,15.4z" id="imagebot_2"/>
 </g>
</svg>